{
  "formatVersion": 1,
  "database": {
    "version": 6,
    "identityHash": "47ab33f688d0f6a58a9d45c01bf51f65",
    "entities": [
      {
        "tableName": "vehicles",
        "createSql": "CREATE TABLE IF NOT EXISTS `${TABLE_NAME}` (`id` INTEGER PRIMARY KEY AUTOINCREMENT NOT NULL, `type` INTEGER NOT NULL, `model` TEXT, `details` TEXT, `mileage` INTEGER NOT NULL)",
        "fields": [
          {
            "fieldPath": "id",
            "columnName": "id",
            "affinity": "INTEGER",
            "notNull": true
          },
          {
            "fieldPath": "type",
            "columnName": "type",
            "affinity": "INTEGER",
            "notNull": true
          },
          {
            "fieldPath": "model",
            "columnName": "model",
            "affinity": "TEXT",
            "notNull": false
          },
          {
            "fieldPath": "details",
            "columnName": "details",
            "affinity": "TEXT",
            "notNull": false
          },
          {
            "fieldPath": "mileage",
            "columnName": "mileage",
            "affinity": "INTEGER",
            "notNull": true
          }
        ],
        "primaryKey": {
          "columnNames": [
            "id"
          ],
          "autoGenerate": true
        },
        "indices": [],
        "foreignKeys": []
      },
      {
        "tableName": "alarms",
        "createSql": "CREATE TABLE IF NOT EXISTS `${TABLE_NAME}` (`id` INTEGER PRIMARY KEY AUTOINCREMENT NOT NULL, `entityId` INTEGER NOT NULL, `entityType` INTEGER NOT NULL, `title` TEXT, `description` TEXT, `onDate` INTEGER NOT NULL, `onMileage` INTEGER NOT NULL, `date` INTEGER, `mileage` INTEGER NOT NULL, `dateEarlyWarning` TEXT, `mileageEarlyWarning` INTEGER NOT NULL, `repeating` INTEGER NOT NULL, `repeatMileage` INTEGER NOT NULL, `repeatTime` TEXT, `active` INTEGER NOT NULL)",
        "fields": [
          {
            "fieldPath": "id",
            "columnName": "id",
            "affinity": "INTEGER",
            "notNull": true
          },
          {
            "fieldPath": "entityId",
            "columnName": "entityId",
            "affinity": "INTEGER",
            "notNull": true
          },
          {
            "fieldPath": "entityType",
            "columnName": "entityType",
            "affinity": "INTEGER",
            "notNull": true
          },
          {
            "fieldPath": "title",
            "columnName": "title",
            "affinity": "TEXT",
            "notNull": false
          },
          {
            "fieldPath": "description",
            "columnName": "description",
            "affinity": "TEXT",
            "notNull": false
          },
          {
            "fieldPath": "onDate",
            "columnName": "onDate",
            "affinity": "INTEGER",
            "notNull": true
          },
          {
            "fieldPath": "onMileage",
            "columnName": "onMileage",
            "affinity": "INTEGER",
            "notNull": true
          },
          {
            "fieldPath": "date",
            "columnName": "date",
            "affinity": "INTEGER",
            "notNull": false
          },
          {
            "fieldPath": "mileage",
            "columnName": "mileage",
            "affinity": "INTEGER",
            "notNull": true
          },
          {
            "fieldPath": "dateEarlyWarning",
            "columnName": "dateEarlyWarning",
            "affinity": "TEXT",
            "notNull": false
          },
          {
            "fieldPath": "mileageEarlyWarning",
            "columnName": "mileageEarlyWarning",
            "affinity": "INTEGER",
            "notNull": true
          },
          {
            "fieldPath": "repeating",
            "columnName": "repeating",
            "affinity": "INTEGER",
            "notNull": true
          },
          {
            "fieldPath": "repeatMileage",
            "columnName": "repeatMileage",
            "affinity": "INTEGER",
            "notNull": true
          },
          {
            "fieldPath": "repeatTime",
            "columnName": "repeatTime",
            "affinity": "TEXT",
            "notNull": false
          },
          {
            "fieldPath": "active",
            "columnName": "active",
            "affinity": "INTEGER",
            "notNull": true
          }
        ],
        "primaryKey": {
          "columnNames": [
            "id"
          ],
          "autoGenerate": true
        },
        "indices": [],
        "foreignKeys": []
      },
      {
        "tableName": "drivers",
        "createSql": "CREATE TABLE IF NOT EXISTS `${TABLE_NAME}` (`id` INTEGER PRIMARY KEY AUTOINCREMENT NOT NULL, `name` TEXT)",
        "fields": [
          {
            "fieldPath": "id",
            "columnName": "id",
            "affinity": "INTEGER",
            "notNull": true
          },
          {
            "fieldPath": "name",
            "columnName": "name",
            "affinity": "TEXT",
            "notNull": false
          }
        ],
        "primaryKey": {
          "columnNames": [
            "id"
          ],
          "autoGenerate": true
        },
        "indices": [],
        "foreignKeys": []
      }
    ],
    "views": [],
    "setupQueries": [
      "CREATE TABLE IF NOT EXISTS room_master_table (id INTEGER PRIMARY KEY,identity_hash TEXT)",
      "INSERT OR REPLACE INTO room_master_table (id,identity_hash) VALUES(42, \"47ab33f688d0f6a58a9d45c01bf51f65\")"
    ]
  }
}